<?xml version="1.0" encoding="UTF-8" standalone="no"?>
<!-- Created with Inkscape (http://www.inkscape.org/) -->

<svg
   xmlns:dc="http://purl.org/dc/elements/1.1/"
   xmlns:cc="http://creativecommons.org/ns#"
   xmlns:rdf="http://www.w3.org/1999/02/22-rdf-syntax-ns#"
   xmlns:svg="http://www.w3.org/2000/svg"
   xmlns="http://www.w3.org/2000/svg"
   xmlns:sodipodi="http://sodipodi.sourceforge.net/DTD/sodipodi-0.dtd"
   xmlns:inkscape="http://www.inkscape.org/namespaces/inkscape"
   width="70.34375mm"
   height="135.46667mm"
   viewBox="0 0 70.34375 135.46667"
   version="1.1"
   id="svg821"
   inkscape:version="0.92.2 2405546, 2018-03-11"
   sodipodi:docname="facebook-logo.svg">
  <defs
     id="defs815" />
  <sodipodi:namedview
     id="base"
     pagecolor="#ffffff"
     bordercolor="#666666"
     borderopacity="1.0"
     inkscape:pageopacity="0.0"
     inkscape:pageshadow="2"
     inkscape:zoom="0.35"
     inkscape:cx="457.21879"
     inkscape:cy="113.14286"
     inkscape:document-units="mm"
     inkscape:current-layer="layer1"
     showgrid="false"
     inkscape:pagecheckerboard="true"
     inkscape:window-width="1278"
     inkscape:window-height="1053"
     inkscape:window-x="1280"
     inkscape:window-y="25"
     inkscape:window-maximized="0" />
  <metadata
     id="metadata818">
    <rdf:RDF>
      <cc:Work
         rdf:about="">
        <dc:format>image/svg+xml</dc:format>
        <dc:type
           rdf:resource="http://purl.org/dc/dcmitype/StillImage" />
        <dc:title></dc:title>
      </cc:Work>
    </rdf:RDF>
  </metadata>
  <g
     inkscape:label="Layer 1"
     inkscape:groupmode="layer"
     id="layer1"
     transform="translate(-69.149553,-25.915476)">
    <g
       id="g1594"
       transform="matrix(0.87319544,0,0,0.87319544,36.588095,25.915476)"
       style="fill:#000000">
      <g
         id="g1538"
         style="fill:#000000">
	<path
   d="M 89.584,155.139 V 84.378 h 23.742 l 3.562,-27.585 H 89.584 V 39.184 c 0,-7.984 2.208,-13.425 13.67,-13.425 l 14.595,-0.006 V 1.08 C 115.325,0.752 106.661,0 96.577,0 75.52,0 61.104,12.853 61.104,36.452 V 56.793 H 37.29 v 27.585 h 23.814 v 70.761 z"
   id="f_1_"
   inkscape:connector-curvature="0"
   style="fill:#000000" />

</g>
      <g
         id="g1540"
         style="fill:#000000">
</g>
      <g
         id="g1542"
         style="fill:#000000">
</g>
      <g
         id="g1544"
         style="fill:#000000">
</g>
      <g
         id="g1546"
         style="fill:#000000">
</g>
      <g
         id="g1548"
         style="fill:#000000">
</g>
      <g
         id="g1550"
         style="fill:#000000">
</g>
      <g
         id="g1552"
         style="fill:#000000">
</g>
      <g
         id="g1554"
         style="fill:#000000">
</g>
      <g
         id="g1556"
         style="fill:#000000">
</g>
      <g
         id="g1558"
         style="fill:#000000">
</g>
      <g
         id="g1560"
         style="fill:#000000">
</g>
      <g
         id="g1562"
         style="fill:#000000">
</g>
      <g
         id="g1564"
         style="fill:#000000">
</g>
      <g
         id="g1566"
         style="fill:#000000">
</g>
      <g
         id="g1568"
         style="fill:#000000">
</g>
    </g>
  </g>
</svg>
